id,lang_code,main_title,sub_title
0,en,Compass,Magnetic deviation
1,es,Homo sapiens,Cultura
2,es,Tolerancia social,Discriminación
3,en,The Legend of Zelda:Majora's Mask,The Legend of Zelda
4,en,Coconut,Coconut oil
5,es,The Legend of Zelda:Ocarina of Time,Anexo:Personajes de The Legend of Zelda
6,en,Science in the medieval Islamic world,Timeline of science and engineering in the Islamic world
7,en,Compass,Fluxgate compass
8,en,Magnetometer,Intermagnet
9,es,Capo di Noli; cerca de Génova,Neoimpresionismo
10,es,Homo sapiens,Historia del arte
11,es,Dragon,Yamata-no-Orochi
12,en,Science in the medieval Islamic world,List of Arab scientists and scholars
13,en,FIFA World Cup,National team appearances in the FIFA World Cup
14,en,Compass,Magnetic dip
15,es,Gorillaz,Anexo:Premios y nominaciones de Gorillaz
16,en,Singing,Vocal pedagogy
17,en,Microsoft Excel,Visual Basic for Applications
18,en,Budapest,List of twin towns and sister cities in Hungary
19,es,Cálculo infinitesimal,Cálculo diferencial
20,es,Copa Mundial de Fútbol,Copa Mundial de Fútbol Sub-20
21,es,Segunda Guerra Mundial,Anexo:Cronología de la Segunda Guerra Mundial
22,es,Ecología,Geobiología
23,en,Human factors and ergonomics,Single-Pilot Resource Management
24,es,Organización de las Naciones Unidas,Ley de cuidados inversos
25,en,European Space Agency,European integration
26,es,Odín,Hold Nickar
27,en,Actor,Mime artist
28,en,Craft,Studio craft
29,en,Large Hadron Collider,Super Large Hadron Collider
30,es,Segunda Guerra Mundial,Resistencia durante la Segunda Guerra Mundial
31,en,Large Hadron Collider,Safety of particle collisions at the Large Hadron Collider
32,es,Queen,A Day at the Races
33,es,J. R. R. Tolkien,Roverandom
34,es,House M. D.,Anexo:Cuarta temporada de House
35,en,Apprenticeship,German model
36,es,Organización de las Naciones Unidas,Organización Mundial de la Salud
37,es,Tomás Cipriano de Mosquera,Batalla de Cuaspud
38,es,Homo sapiens,Amor
39,es,OTAN,Alfabeto radiofónico
40,es,Segunda Guerra Mundial,Batalla del Atlántico
41,es,Esquema de pirámide,Células de la abundancia
42,en,Hard disk drive,Automatic acoustic management
43,es,Segunda Guerra Mundial,Operación Market Garden
44,es,Imperio alemán,Rechtsstaat
45,es,Derechos humanos,Organización Internacional del Trabajo
46,es,Turquía,Organización territorial de Turquía
47,en,Imperial College London,Imperial College Union
48,en,Papermaking,Paper machine
49,en,Model (profession),Promotional model
50,es,Ecología,Ecozona
51,es,Teléfono,Anexo:Países por número de líneas telefónicas
52,en,Actor,Dramatis personæ
53,es,Sacro Imperio Romano Germánico,Anexo:Estados del Sacro Imperio Romano Germánico
54,en,Science in the medieval Islamic world,List of Turkish philosophers and scientists
55,es,Queen,Greatest Hits II (álbum de Queen)
56,en,Dan Leno,Stage performances of Dan Leno
57,en,Dragon,Proto-Indo-European religion
58,es,Stephenie Meyer,Luna nueva (novela)
59,es,Especie,Filo
60,es,Segunda Guerra Mundial,Batalla de Madagascar
61,es,Coleoptera,Anexo:Sistemática de los coleópteros
62,es,Torneo Apertura 2009 (Colombia),Anexo:Torneo Apertura 2009 (Colombia) - Cuadrangulares semifinales
63,en,Human factors and ergonomics,Back injury
64,en,Déjà vu,Rapport congruency
65,en,Model (profession),Model (art)
66,en,Papermaking,Bleaching of wood pulp
67,es,Turquía,Mustafa Kemal Atatürk
68,en,Human factors and ergonomics,Henry Dreyfuss
69,en,Papua New Guinea,Conservation in Papua New Guinea
70,en,Apprenticeship,Apprentices mobility
71,en,Quarto,Bookbinding
72,en,ESRO,EXOSAT
73,es,Etanol,Efectos del alcohol en el cuerpo
74,es,Matrimonio entre personas del mismo sexo,Matrimonio entre personas del mismo sexo en los Estados Unidos
75,en,OS X,Comparison of BSD operating systems
76,es,Homo sapiens,Anatomía humana
77,es,Alimento,Gastronomía
78,es,Homo sapiens,Sexualidad humana
79,en,Papua New Guinea,Geography of Papua New Guinea
80,en,Science in the medieval Islamic world,Psychology in medieval Islam
81,en,Android (operating system),Index of Android OS articles
82,es,Mac OS X,Mac OS X v10.2
83,en,List of Chinese inventions,Four Great Inventions
84,es,Tolerancia social,Filosofía política
85,en,Dragon,Behemoth
86,en,Chinese ceramics,Pinner
87,en,Apprenticeship,Guild
88,es,Mac OS X,ILife
89,es,Segunda Guerra Mundial,Hechos anteriores a la Segunda Guerra Mundial en Asia
90,es,Derivada,Derivación numérica
91,es,Organización de las Naciones Unidas,Televisión de Naciones Unidas
92,en,Hard disk drive,Write precompensation
93,en,List of Northwestern University buildings,Dearborn Observatory
94,es,Queen,Anexo:Giras musicales de Queen
95,en,History of paper,Friedrich Gottlob Keller
96,es,Matrimonio entre personas del mismo sexo,Heterosexismo
97,en,J. R. R. Tolkien,Languages constructed by J. R. R. Tolkien
98,es,Harry Potter,Harry Potter y el prisionero de Azkaban
99,en,Singing,Chiaroscuro (music)
100,es,Cálculo infinitesimal,Seki Kōwa
101,en,Science in the medieval Islamic world,History of scientific method
102,en,Blastaar,Annihilation (comics)
103,en,Outline of crafts,Handicraft
104,en,Android (operating system),Google Chrome OS
105,en,Apprenticeship,School-to-work transition
106,en,Precision and recall,Binary classification
107,es,Segunda Guerra Mundial,Hechos anteriores a la Segunda Guerra Mundial en Europa
108,es,Super Smash Bros.,Super Smash Bros. (serie)
109,en,The Silmarillion,The Tale of Beren and Lúthien
110,es,Segunda Guerra Mundial,Fall Blau
111,es,Segunda Guerra Mundial,Gulag
112,en,Compass,Binnacle
113,es,Valdemoro,Historia de Valdemoro
114,en,Science in the medieval Islamic world,Physics in medieval Islam
115,es,Política de México,Municipios de México
116,en,Chinese ceramics,Yixing clay
117,en,Dragon,Balaur
118,en,Space opera,List of space opera media
119,es,Homo sapiens,Antropología
120,es,Ecología,Factores bióticos
121,es,Derechos humanos,Corte Interamericana de Derechos Humanos
122,es,Flamenco,Día del Flamenco
123,en,Paper size,Paper density
124,en,Nintendo 64,1964 (emulator)
125,en,Singing,Head voice
126,en,Nintendo 64,UltraHLE
127,en,Super Smash Bros.,Super Smash Bros. (series)
128,en,Andy Kaufman,Latka Gravas
129,en,List of Northwestern University buildings,Garrett–Evangelical Theological Seminary
130,en,Pottery,Minoan pottery
131,es,Ecología,Ecología cultural
132,en,Frog,Decline in amphibian populations
133,es,Matrimonio entre personas del mismo sexo,Matrimonio
134,es,Spiral,BOR-4
135,es,Homo sapiens,Filosofía
136,en,Porcelain,Ceramic forming techniques
137,en,Godzilla,Godzilla in popular culture
138,en,Proton,Proton decay
139,es,STS-335,Estación Espacial Internacional
140,es,Segunda Guerra Mundial,Crímenes de guerra del Imperio del Japón
141,en,The War of the Worlds,Le Monde's 100 Books of the Century
142,en,Craft,Apprenticeship
143,es,Homo sapiens,Homo homini lupus
144,es,WHSV-TV,WHSV-DT2
145,en,City council,Local government in the United States
146,es,Radiactividad,Radiación ionizante
147,es,Homo sapiens,Pensamiento
148,en,Liberalism,Ludwig von Mises Institute
149,es,Lava,Lava acojinada
150,en,Human factors and ergonomics,Repetitive strain injury
151,en,Porcelain,Pottery
152,es,Queen,Anexo:Discografía de Queen
153,es,Homo sapiens,Razas humanas
154,es,Teléfono,Teléfono descompuesto
155,es,Política de México,Congreso de la Unión
156,es,Homo sapiens,Danza
157,es,Copa Mundial de Fútbol,Copa Mundial de Fútbol Sub-17
158,en,Craft,Arts and Crafts movement
159,en,Pottery,Ancient Roman pottery
160,es,Torneo Apertura 2009 (Colombia),Final del Torneo Apertura 2009 (Colombia)
161,en,Creator deity,Logos (Christianity)
162,es,Microsoft Office,Microsoft Outlook
163,es,Matrimonio entre personas del mismo sexo,Matrimonio entre personas del mismo sexo en los Países Bajos
164,en,Human factors and ergonomics,Human–computer interaction
165,es,Radiactividad,Teoría atómica
166,es,Mac OS X,Mac OS X v10.1
167,en,Actor,Extra (actor)
168,es,Ecología,Biogeografía
169,en,Wood,Burl
170,en,The Silmarillion,Valaquenta
171,es,Derivada,Isaac Newton
172,en,Hard disk drive,History of hard disk drives
173,en,Wood,Wood pellet
174,es,Homo sapiens,Aparato genital
175,es,Tolerancia social,Libertad
176,es,Organización de las Naciones Unidas,Inteligencia sanitaria
177,en,European Space Agency,Skylon (spacecraft)
178,en,Science in the medieval Islamic world,Islamic Golden Age
179,en,Apprenticeship,Educational Theory of Apprenticeship
180,en,Dragon,Sea serpent
181,en,Nexus One,Comparison of Android devices
182,es,STS-335,STS-135
183,es,Segunda Guerra Mundial,Bloque del Este
184,es,Tomás Cipriano de Mosquera,Anexo:Gobernadores de Cauca
185,es,Sindicato,Flexibilidad laboral
186,en,OS X,OS X Mountain Lion
187,es,Etanol,Etanol (combustible)
188,es,Alimento,Lote vegetariano
189,en,List of volcanoes in Spain,Lists of volcanoes
190,es,Reloj atómico,Reloj de lógica cuántica
191,en,Sudoku,Killer sudoku
192,en,Singing,Vocal music
193,es,Valdemoro,Parque Regional del Sureste
194,es,Mac OS X,Mac OS X v10.7
195,en,Proton,Neutron
196,es,Derechos humanos,Libertad
197,es,Política de México,Cámara de Diputados de México
198,en,Papermaking,Environmental impact of paper
199,en,Dragon,Feilong (mythology)